…
###4.7.3 Group then summarize with `group_by`
A common operation in data exploration is to first split data into groups and then compute summaries for each group. For example, we may want to compute the average and standard deviation for men’s and women’s heights separately. The `group_by` function helps us do this.

If we type this:
```{r}
heights %>% group_by(sex)
#> # A tibble: 1,050 x 2
#> # Groups:   sex [2]
#>   sex   height
#>   <fct>  <dbl>
#> 1 Male      75
#> 2 Male      70
#> 3 Male      68
#> 4 Male      74
#> 5 Male      61
#> # … with 1,045 more rows
```
…
NHANES%>%filter(Gender=="male")%>%group_by(AgeDecade)%>%summarize(average=mean(BPSysAve,na.rm=TRUE),standard_deviation=sd(BPSysAve,na.rm=TRUE))
```
6. We can actually combine both summaries for exercises 4 and 5 into one line of code. This is because `group_by` permits us to group by more than one variable. Obtain one big summary table using `group_by(AgeDecade, Gender)`.
```{r}
NHANES%>%group_by(AgeDecade,Gender)%>%summarize(average=mean(BPSysAve,na.rm=TRUE),standard_deviation=sd(BPSysAve,na.rm=TRUE))
```
7. For males between the ages of 40-49, compare systolic blood pressure across race as reported in the` Race1` variable. Order the resulting table from lowest to highest average systolic blood pressure.
```{r}
NHANES%>%filter(Gender=="male",AgeDecade==" 40-49")%>%group_by(Race1)%>%summarize(average=mean(BPSysAve,na.rm=TRUE),standard_deviation=sd(BPSysAve,na.rm=TRUE))%>% arrange(average)
```
##4.11 Tibbles
Tidy data must be stored in data frames. We introduced the data frame in Section 2.4.1 and have been using the `murders` data frame throughout the book. In Section 4.7.3 we introduced the `group_by` function, which permits stratifying data before computing summary statistics. But where is the group information stored in the data frame?
```{r}
murders %>% group_by(region)
#> # A tibble: 51 x 6
#> # Groups:   region [4]
#>   state      abb   region population total  rate
#>   <chr>      <chr> <fct>       <dbl> <dbl> <dbl>
#> 1 Alabama    AL    South     4779736   135  2.82
#> 2 Alaska     AK    West       710231    19  2.68
#> 3 Arizona    AZ    West      6392017   232  3.63
#> 4 Arkansas   AR    South     2915918    93  3.19
#> 5 California CA    West     37253956  1257  3.37
#> # … with 46 more rows
```
…
